EFI TERN Challenge - Instructions
…
datetime: YYYY-MM-DD (the day is determined using UTC time)

site_id: NEON site code (e.g., BART)

variable: nee (g C m-2 day-1) or le (W m-2)

observation: value for variable

Here is the download link and format of the terrestrial_daily target file

readr::read_csv("https://data.ecoforecast.org/tern4cast-targets/terrestrial_daily/terrestrial_daily-targets.csv.gz", guess_max = 1e6) |> 
  na.omit()

# A tibble: 20,569 × 4
   datetime   site_id variable observation
   <date>     <chr>   <chr>          <dbl>
 1 2010-07-30 ACPR    le            48.8  
 2 2010-07-31 ACPR    le            22.6  
 3 2010-07-31 ACPR    nee           -0.296
 4 2010-08-01 ACPR    le            69.6  
 5 2010-08-01 ACPR    nee           -1.27 
 6 2010-08-02 ACPR    le            21.1  
 7 2010-08-02 ACPR    nee           -0.375
 8 2010-08-03 ACPR    le            15.7  
 9 2010-08-03 ACPR    nee           -0.563
10 2010-08-04 ACPR    le             9.48 
# ℹ 20,559 more rows
…
